Enrollment ID,Submitted Date,Operating Company,Invitation Code,Account Number,Account Number12,Contact First Name,Contact Last Name,Contact Email,Contact Phone,Contact ZipCode,Ship To Address,Address1,Address2,City,State,Zip,Refferal Source,Water Heater,Heater Fuel,More Info,Requested Kit
"10659645","6/18/2013","Ohio Ed","2431486","","110078533582","BARBARA MALONE  ","","","","44035","O","721 W RIVER RD N APT B","","ELYRIA","OH","44035","","Natural Gas","Natural Gas","","Non-electric"
"10659788","6/18/2013","CEIC","1540669","110078462998","110078462998","BRENDA L REED  ","","","","44105","S","4603 ALPHA AVE UPPR","","NEWBURGH HEIGHTS","OH","44105","","Electric","Natural Gas","","Non-electric"
"10659788","6/18/2013","CEIC","1065070","110023043513","110023043513","BRENDA L REED  ","","","","44105","M","4603 ALPHA AVE UPPR","","NEWBURGH HEIGHTS","OH","44105","","Electric","Natural Gas","","Non-electric"
"10659836","6/18/2013","CEIC","1570434","110089753831","110089753831","DONNA RYKALLA  ","","","","44125","M","13075 N PARTRIDGE DR","","VALLEY VIEW","OH","44125","","Natural Gas","Natural Gas","","Non-electric"
"10660021","6/18/2013","CEIC","1580434","110090592350","110090592350","DANIEL SMALTZ  ","","drsmaltz@hotmail.com","","44122","M","936 S BELLE VISTA ST","","YOUNGSTOWN","OH","44509","","Natural Gas","Natural Gas","","Non-electric"
"10660096","6/18/2013","Ohio Ed","2318786","110067616570","110067616570","GOLDEN STRING","","","","44502","M","16 S PHELPS ST","","YOUNGSTOWN","OH","44503","","Electric","Electric","","Electric"
"10660108","6/18/2013","CEIC","2907568","110097034141","110097034141","JAMES TYLEC","","jltylec@windstream.net","","44057","M","1975 PAISLEY RD","","MADISON","OH","44057","","Natural Gas","Natural Gas","","Non-electric"
"10660135","6/18/2013","CEIC","1391915","110054207581","110054207581","ALEJANDRO VALLECILLO  ","","alv0@yahoo.com","","44145","M","3100 WATERFALL WAY","","WESTLAKE","OH","44145","","Natural Gas","Natural Gas","","Non-electric"
"10660205","6/18/2013","Ohio Ed","2186266","110046266455","110046266455","STEPHEN W DEWITT  ","","","","44632","M","1171 YUMA CIR APT C","","HARTVILLE","OH","44632","","Natural Gas","Natural Gas","","Non-electric"
"10660247","6/18/2013","CEIC","1588964","110091242138","110091242138","MARIA M HERNANDEZ  ","","riariver71@yahoo.com","","44111","M","3549 LLOYD RD LOWR","","CLEVELAND","OH","44111","","Natural Gas","Natural Gas","","Non-electric"
"10660265","6/18/2013","Ohio Ed","2002869","110015404269","110015404269","EUDOKIA LUCZAK  ","","","","44509","M","2309 RIDGELAWN AVE","","YOUNGSTOWN","OH","44509","","Natural Gas","Natural Gas","","Non-electric"
"10660287","6/18/2013","Ohio Ed","2406566","110076709374","110076709374","KARL F HIRSCH  ","","","","44601","M","1221 TURNBURY ST","","ALLIANCE","OH","44601","","Natural Gas","Electric","","Non-electric"
"10660353","6/18/2013","CEIC","1411161","110058969772","110058969772","JANE C OOTEN  ","","","","44124","M","1527 LANDER RD","","MAYFIELD HEIGHTS","OH","44124","","Natural Gas","Natural Gas","","Non-electric"
"10660601","6/18/2013","Ohio Ed","2417846","110077536305","110077536305","DEBORAH D PRITCHARD  ","","","","44270","M","89 N SENECA ST","","RITTMAN","OH","44270","","Electric","Electric","","Electric"
"10660668","6/18/2013","Ohio Ed","1968659","110014422510","110014422510","JOHN M WELCH  ","","","","44483","M","1925 CLERMONT AVE NE","","WARREN","OH","44483","","Natural Gas","Natural Gas","","Non-electric"
"10657494","6/17/2013","Ohio Ed","2033697","110016240951","110016240951","SAM P CARONA  ","","","","44515","M","4481 DEER CREEK CT APT 1","","YOUNGSTOWN","OH","44515","","Natural Gas","Other","","Non-electric"
"10657594","6/17/2013","CEIC","1540515","110078447080","110078447080","DONNA RYKALLA  ","","","","44125","M","13075 N PARTRIDGE DR","","VALLEY VIEW","OH","44125","","Natural Gas","Natural Gas","","Non-electric"
"10657631","6/17/2013","Ohio Ed","2518943","110092857934","110092857934","NICHOLAS SUCIC  ","","","","44203","M","62 FOX TRACE LN","","HUDSON","OH","44236","","Natural Gas","Natural Gas","","Non-electric"
"10657925","6/17/2013","Ohio Ed","2058518","110016815364","110016815364","ROBERT M SPIRKO  ","","","","44406","M","3684 ORCHARD HILL DR","","CANFIELD","OH","44406","","Natural Gas","Natural Gas","","Non-electric"
"10657963","6/17/2013","CEIC","1507395","110075156221","110075156221","JERRY DESMOND  ","","","","44136","M","16752 LAKE CIRCLE DR","","STRONGSVILLE","OH","44136","","Natural Gas","Natural Gas","","Non-electric"
"10658058","6/17/2013","Ohio Ed","2868412","110096188203","110096188203","DONALD L NAGEL  ","","","","44319","M","3804 S TURKEYFT RD","","AKRON","OH","44319","","Electric","Natural Gas","","Non-electric"
"10658058","6/17/2013","Ohio Ed","2560869","110094979843","110094979843","DONALD L NAGEL  ","","","","44312","M","3804 S TURKEYFT RD","","AKRON","OH","44319","","Electric","Natural Gas","","Non-electric"
"10658058","6/17/2013","Ohio Ed","2431486","","110078533582","DONALD L NAGEL  ","","","","44319","M","","","","","","","Electric","Natural Gas","","Non-electric"
"10658058","6/17/2013","Ohio Ed","1773427","110009190627","110009190627","DONALD L NAGEL  ","","","","44319","M","3804 S TURKEYFOOT RD","","AKRON","OH","44319","","Natural Gas","Natural Gas","","Non-electric"
"10658152","6/17/2013","Ohio Ed","1965210","110014316837","110014316837","JACK E FATELEY","","","","44485","M","3300 LODWICK DR NW","","WARREN","OH","44485","","Natural Gas","Natural Gas","","Non-electric"
"10658168","6/17/2013","Ohio Ed","2126695","110035633624","110035633624","JAMES R USCIANOWSKI  ","","","","44512","M","54 SUGAR CANE DR","","YOUNGSTOWN","OH","44512","","Natural Gas","Natural Gas","","Non-electric"
"10658201","6/17/2013","Ohio Ed","2403886","110076474540","110076474540","JOHN PETTRY  ","","","","44212","M","3993 CANTERBURY DR","","BRUNSWICK","OH","44212","","Natural Gas","Natural Gas","","Non-electric"
"10658286","6/17/2013","Ohio Ed","2142818","110038468747","110038468747","RICHARD A GREATHOUSE  ","","","","44511","M","4272 KERRY BROOK AVE","","YOUNGSTOWN","OH","44511","","Natural Gas","Natural Gas","","Non-electric"
"10658291","6/17/2013","Ohio Ed","2038390","110016354943","110016354943","EDWARD YATSCO  ","","","","44511","M","4092 BAYMAR DR","","YOUNGSTOWN","OH","44511","","Natural Gas","Natural Gas","","Non-electric"
"10658310","6/17/2013","Ohio Ed","2260575","110058917169","110058917169","LYNN M LENART  ","","lynnlenart@hotmail.com","","44312","M","871 BRISTOL DR","","AKRON","OH","44312","","Natural Gas","Natural Gas","","Non-electric"
"10658565","6/17/2013","Ohio Ed","1863300","110011409874","110011409874","J ARNOLD FREDERICK  ","","","","44053","M","4540 OAKHILL BLVD APT 307","","LORAIN","OH","44053","","Electric","Other","","Non-electric"
"10658621","6/17/2013","Ohio Ed","2362388","110072634550","110072634550","MARK GORSKY  ","","","","44512","M","12 S PHILLIPS ST","","YOUNGSTOWN","OH","44503","","Electric","Electric","","Electric"
"10658901","6/17/2013","Ohio Ed","2286478","110063101817","110063101817","LOUIS DECATO  ","","","","44515","M","303 S EDGEHILL AVE","","YOUNGSTOWN","OH","44515","","Natural Gas","Natural Gas","","Non-electric"
"10658901","6/17/2013","Ohio Ed","2021024","110015946186","110015946186","LOUIS DECATO  ","","","","44515","M","303 S EDGEHILL AVE","","YOUNGSTOWN","OH","44515","","Natural Gas","Natural Gas","","Non-electric"
"10659055","6/17/2013","Ohio Ed","2212956","110050763314","110050763314","CHARLES R OBERLIN  ","","","","44904","M","1684 NANTUCKET DR","","MANSFIELD","OH","44904","","Electric","Natural Gas","","Non-electric"
"10659078","6/17/2013","Toledo Ed","2795714","110076561619","110076561619","PATRICIA J THRASHER  ","","pjthrasher@live.com","","43560","M","4835 NEW ENGLAND LN APT 57","","SYLVANIA","OH","43560","","Natural Gas","Natural Gas","","Non-electric"
"10657740","6/17/2013","Ohio Ed","2166434","110042651122","110042651122","MELVIN B SAYRE  ","","","","44314","M","666 CARNEGIE AVE APT A7","","AKRON","OH","44314","","Electric","Electric","","Non-electric"
"10657771","6/17/2013","Toledo Ed","2802129","110077958715","110077958715","KAY A BATES  ","","kayrn1227@gmail.com","","43615","M","437 S HAVEN RD","","TOLEDO","OH","43615","","Electric","Natural Gas","","Non-electric"
"10657789","6/17/2013","Ohio Ed","2868318","","110096183196","MICHAEL MITZEL  ","","","","44406","M","","","","","","","Natural Gas","Natural Gas","","Non-electric"
"10657825","6/17/2013","Ohio Ed","2023241","110016000173","110016000173","JACK VAUGHN  ","","","","44511","M","2226 VOLNEY RD","","YOUNGSTOWN","OH","44511","","Natural Gas","Natural Gas","","Non-electric"
"10657856","6/17/2013","CEIC","1558837","110080064881","110080064881","DONNA RYKALLA  ","","","","44125","M","13075 N PARTRIDGE","","VALLEY VIEW","OH","44125","","Natural Gas","Natural Gas","","Non-electric"
"10657860","6/17/2013","Ohio Ed","2317795","110067508199","110067508199","KIMBERLY A STONE  ","","kstone@uakron.edu","","44319","M","262 TEAL CIR","","AKRON","OH","44319","","Natural Gas","Natural Gas","","Non-electric"
"10657085","6/15/2013","Ohio Ed","2196957","110048029869","110048029869","CHARLES A HABA  ","","","","44646","M","8565 YORKSHIRE NW ST","","MASSILLON","OH","44646","","Natural Gas","Natural Gas","","Non-electric"
"10657175","6/15/2013","Ohio Ed","2580769","110095803596","110095803596","JULIE JAKUBEK  ","","","","44511","M","20 WOODLEIGH CT","","YOUNGSTOWN","OH","44511","","Natural Gas","Natural Gas","","Non-electric"
"10657198","6/15/2013","CEIC","1152574","110025557205","110025557205","BETTY ANDREWS  ","","","","44133","M","8729 JONATHAN DR","","NORTH ROYALTON","OH","44133","","Electric","Electric","","Electric"
"10657213","6/15/2013","CEIC","1361331","110046537020","110046537020","MARK W MINES  ","","","","44030","M","207 GLENDOLA AVE NW","","WARREN","OH","44483","","Natural Gas","Natural Gas","","Non-electric"
"10657293","6/15/2013","Ohio Ed","2020466","110015933622","110015933622","LISA J BURNHAM  ","","","","44514","M","1430 TAMARISK TRL","","POLAND","OH","44514","","Natural Gas","Natural Gas","","Non-electric"
"10655630","6/14/2013","CEIC","1486767","110072432567","110072432567","SANDRA D SISTRUNK  ","","fascin8101@aol.com","","44135","M","13420 WILTON AVE","","CLEVELAND","OH","44135","","Natural Gas","Natural Gas","","Non-electric"
"10655761","6/14/2013","Ohio Ed","2275522","110061300189","110061300189","BEVERLY A VENZEIO  ","","","","44483","M","831 KENMORE AVE NE","","WARREN","OH","44483","","Natural Gas","Natural Gas","","Non-electric"
"10655856","6/14/2013","CEIC","2859958","110095729858","110095729858","TAMMY SALES  ","","","","44104","M","9415 FULLER AVE","","CLEVELAND","OH","44104","","Natural Gas","Natural Gas","","Non-electric"
"10655928","6/14/2013","Ohio Ed","1914900","110012815293","110012815293","RICHARD J KAMMER  ","","kck1941@oh.rr.com","","44089","M","8983 GATESTONE RD","","NORTH RIDGEVILLE","OH","44039","","Electric","Electric","","Electric"
"10655966","6/14/2013","CEIC","1520580","110076554325","110076554325","DONNA RYKALLA  ","","","","44125","M","13075 N PARTRIDGE DR","","VALLEY VIEW","OH","44125","","Natural Gas","Natural Gas","","Non-electric"
"10656054","6/14/2013","Ohio Ed","1676813","110006477746","110006477746","MICHAEL M GARRETT  ","","","","44647","M","925 14TH ST SW","","MASSILLON","OH","44647","","Natural Gas","Natural Gas","","Non-electric"
"10656079","6/14/2013","CEIC","2892678","110096767352","110096767352","DAVID P KUCMANIC  ","","dkucmanic@gmail.com","","44092","M","1740 HARDING DR","","WICKLIFFE","OH","44092","","Natural Gas","Natural Gas","","Non-electric"
"10656408","6/14/2013","CEIC","1647863","110095238983","110095238983","SAPRINA HENDERSON  ","","","","44128","M","15117 LINCOLN AVE","","CLEVELAND","OH","44128","","Natural Gas","Natural Gas","","Non-electric"
"10656776","6/14/2013","Ohio Ed","2462627","110089275165","110089275165","J STRINES  ","","","","44512","M","186 MELROSE AVE","","YOUNGSTOWN","OH","44512","","Natural Gas","Natural Gas","","Non-electric"
"10656992","6/14/2013","Ohio Ed","2130000","110036121777","110036121777","MICHELE M BOWER  ","","mbower@snapgrid.net","","44436","M","6536 NEW CASTLE RD","","LOWELLVILLE","OH","44436","","Electric","Natural Gas","","Non-electric"
"10657023","6/14/2013","Ohio Ed","1737910","110008343862","110008343862","CRAIG B LANNING  ","","","","44203","M","1574 UNION ST","","BARBERTON","OH","44203","","Natural Gas","Natural Gas","","Non-electric"
"10655506","6/14/2013","Ohio Ed","2357831","110072132696","110072132696","DENNIS MIZNER  ","","","","44212","M","712 PEARL RD APT 5","","BRUNSWICK","OH","44212","","Natural Gas","Natural Gas","","Non-electric"
"10655552","6/14/2013","Ohio Ed","2359095","110072270157","110072270157","BEN STIDD  ","","memestidd@aol.com","","44266","M","526 MORGAN ST","","RAVENNA","OH","44266","","Natural Gas","Natural Gas","","Non-electric"
"10655556","6/14/2013","Ohio Ed","2177256","110044517586","110044517586","GEORGE W STARNES  ","","","","44483","M","1648 GENESEE AVE NE","","WARREN","OH","44483","","Electric","Natural Gas","","Non-electric"
"10655580","6/14/2013","Ohio Ed","2308925","110066373322","110066373322","BOBBIE J CLIFFORD  ","","vanechick34@aol.com","","44440","M","3342 MAIN ST","","MINERAL RIDGE","OH","44440","","Electric","Natural Gas","","Non-electric"
"10655758","6/14/2013","Ohio Ed","2241895","110055637810","110055637810","MARIE HARRIS  ","","","","44505","M","2971 MEGAN CIR","","YOUNGSTOWN","OH","44505","","Natural Gas","Natural Gas","","Non-electric"
"10654072","6/13/2013","Ohio Ed","2015721","110015789016","110015789016","ELEANOR C PRUCE  ","","","","44514","M","2052 EVERETT AVE","","YOUNGSTOWN","OH","44514","","Natural Gas","Natural Gas","","Non-electric"
"10654126","6/13/2013","Ohio Ed","2035415","110016285261","110016285261","ANTHONY J SKAROTE  ","","","","44440","M","5115 CLEARFIELD DR","","MINERAL RIDGE","OH","44440","","Natural Gas","Natural Gas","","Non-electric"
"10654321","6/13/2013","Ohio Ed","2389660","110075303609","110075303609","WALTER SWITA  ","","","","44514","M","6857 POLAND CENTER DR","","POLAND","OH","44514","","Electric","Electric","","Electric"
"10654321","6/13/2013","Ohio Ed","2389629","110075300340","110075300340","WALTER SWITA  ","","","","44514","M","6857 POLAND CENTER DR","","POLAND","OH","44514","","Electric","Electric","","Electric"
"10654537","6/13/2013","Ohio Ed","2027179","110016092253","110016092253","JACK STEINER  ","","","","44511","M","1883 LANCASTER DR","","YOUNGSTOWN","OH","44511","","Natural Gas","Electric","","Non-electric"
"10654583","6/13/2013","Ohio Ed","2049402","110016616168","110016616168","DAVID C BALASH  ","","","","44511","M","3984 S SCHENLEY AV A1","","YOUNGSTOWN","OH","44511","","Natural Gas","Natural Gas","","Non-electric"
"10654674","6/13/2013","Ohio Ed","2219065","110051922034","110051922034","ROBERT R PASQUAL  ","","","","44511","M","2232 COLEMAN DR","","YOUNGSTOWN","OH","44511","","Electric","Natural Gas","","Non-electric"
"10654744","6/13/2013","Ohio Ed","2865227","110096043150","110096043150","GWENDOLYN J SNOWDEN  ","","","","44509","M","151 S LAKEVIEW AVE","","YOUNGSTOWN","OH","44509","","Other","Natural Gas","","Non-electric"
"10654745","6/13/2013","CEIC","1043411","110022257932","110022257932","RUDOLPH T ABRAHAM  ","","","","44125","M","13180 S PARTRIDGE DR","","VALLEY VIEW","OH","44125","","Natural Gas","Natural Gas","","Non-electric"
"10654753","6/13/2013","CEIC","1606843","110092604997","110092604997","TRUST PROPERTIES LLC","","trust.properties@yahoo.com","","44070","M","4758 RIDGE RD #215","","BROOKLYN","OH","44144","","Electric","Natural Gas","","Non-electric"
"10654911","6/13/2013","CEIC","1345335","110042194651","110042194651","MIGUEL TEDESCO  ","","","","44070","M","5158 DOUGLAS DR","","NORTH OLMSTED","OH","44070","","Natural Gas","Natural Gas","","Non-electric"
"10655056","6/13/2013","Ohio Ed","2864396","110095564768","110095564768","AARON WALKER  ","","","","44212","M","3772 FOXWOOD TER APT 102","","BRUNSWICK","OH","44212","","Other","Other","","Non-electric"
"10655056","6/13/2013","Ohio Ed","1828554","110010507926","110010507926","CYNTHIA J WALTER  ","","","","44212","M","4745 BAYWOOD DR","","BRUNSWICK","OH","44212","","Other","Natural Gas","","Non-electric"
"10655099","6/13/2013","Ohio Ed","2186936","110046389059","110046389059","SUZANNE KACHUREK  ","","","","44515","M","523 WILCOX RD UNIT A","","YOUNGSTOWN","OH","44515","","Natural Gas","Natural Gas","","Non-electric"
"10655102","6/13/2013","CEIC","1511050","110075567575","110075567575","EDWARD J GERDING  ","","","","44134","M","3434 COMMONWEALTH DR","","PARMA","OH","44134","","Natural Gas","Natural Gas","","Non-electric"
"10655135","6/13/2013","Ohio Ed","1789957","110009583839","110009583839","RANDALL W WILLS  ","","","","44215","M","5926 FIRST ST","","CHIPPEWA LAKE","OH","44215","","Electric","Electric","","Electric"
"10655171","6/13/2013","Ohio Ed","2088384","110017804730","110017804730","SAMUEL R CAMP  ","","","","44431","M","5122 LISBON SALEM","","LEETONIA","OH","44431","","Electric","Oil","","Non-electric"
"10655171","6/13/2013","Ohio Ed","2062350","110016907997","110016907997","SAMUEL R CAMP  ","","","","44432","M","5122 ST RT 45","","LEETONIA","OH","44431","","Electric","Oil","","Non-electric"
"10655339","6/13/2013","Ohio Ed","2087523","110017747046","110017747046","DONALD L DIAS  ","","","","44443","M","12895 SPRINGFIELD RD","","NEW SPRINGFIELD","OH","44443","","Electric","Natural Gas","","Non-electric"
"10652769","6/12/2013","CEIC","1548670","110079185887","110079185887","HERMINE A RIMPF  ","","mamileinrimpf@hotmail.com","","44107","M","1200 BELLE AVE UPPR","","LAKEWOOD","OH","44107","","Natural Gas","Natural Gas","","Non-electric"
"10652769","6/12/2013","CEIC","1458157","110068114047","110068114047","HERMINE A RIMPF  ","","mamileinrimpf@hotmail.com","","44107","M","1200 BELLE AVE UPPR","","LAKEWOOD","OH","44107","","Natural Gas","Natural Gas","","Non-electric"
"10652908","6/12/2013","Ohio Ed","1759124","110008855667","110008855667","JOHN L MUCCINO  ","","","","44224","M","4091 BURTON RD","","STOW","OH","44224","","Natural Gas","Natural Gas","","Non-electric"
"10652914","6/12/2013","Ohio Ed","2182712","110045630669","110045630669","DAVID T PITOSCIA  ","","","","44438","M","911 ALBRIGHT MCKAY RD SE","","BROOKFIELD","OH","44403","","Natural Gas","Natural Gas","","Non-electric"
"10652914","6/12/2013","Ohio Ed","2080952","110017395879","110017395879","DAVID T PITOSCIA  ","","","","44403","M","911 ALBRIGHT MCKAY RD SE","","BROOKFIELD","OH","44403","","Natural Gas","Natural Gas","","Non-electric"
"10652978","6/12/2013","Ohio Ed","2864186","110016244391","110016244391","JOSEPHINE D SHASHO  ","","","","44514","M","2939 HOWELL DR","","POLAND","OH","44514","","Other","Natural Gas","","Non-electric"
"10653059","6/12/2013","CEIC","1410866","110058902732","110058902732","LARRY BALTAS  ","","","","44004","M","2071 PENNY LN","","YOUNGSTOWN","OH","44515","","Natural Gas","Natural Gas","","Non-electric"
"10653265","6/12/2013","CEIC","1090340","110024065507","110024065507","GREGORY EGGLESTON  ","","","","44108","M","9703 GARFIELD AVE UPPR","","CLEVELAND","OH","44108","","Natural Gas","Natural Gas","","Non-electric"
"10653267","6/12/2013","CEIC","1223488","110027119848","110027119848","ROSEMARIE WALKER  ","","","","44060","M","6479 SOUTHGROVE RD","","MENTOR","OH","44060","","Natural Gas","Natural Gas","","Non-electric"
"10653267","6/12/2013","CEIC","1223000","110027107157","110027107157","MARK J WALKER  ","","","","44060","M","6487 SOUTHGROVE RD","","MENTOR","OH","44060","","Natural Gas","Natural Gas","","Non-electric"
"10653539","6/12/2013","Ohio Ed","2051844","110016668573","110016668573","JACK C WALP  ","","","","44514","M","6650 CLINGAN RD","","POLAND","OH","44514","","Natural Gas","Natural Gas","","Non-electric"
"10653736","6/12/2013","Ohio Ed","2086914","110017704765","110017704765","TERESAA HOWARD  ","","","","44432","M","325 MAPLE ST","","LISBON","OH","44432","","Natural Gas","Natural Gas","","Non-electric"
"10653772","6/12/2013","Ohio Ed","1873719","110011701437","110011701437","NANCY L YUHASZ  ","","","","43440","M","166 BROOKFIELD AV","","YOUNGSTOWN","OH","44512","","Natural Gas","Natural Gas","","Non-electric"
"10653802","6/12/2013","Ohio Ed","2027412","110016097112","110016097112","PAMELA J BROOKS  ","","","","44512","M","6954 COLLEEN DR","","YOUNGSTOWN","OH","44512","","Natural Gas","Natural Gas","","Non-electric"
"10653878","6/12/2013","Ohio Ed","2271856","110060718977","110060718977","MIKE D PHELPS  ","","","","44471","M","32 COMO ST","","STRUTHERS","OH","44471","","Natural Gas","Natural Gas","","Non-electric"
"10653926","6/12/2013","Ohio Ed","2338146","110070030462","110070030462","SUZETTE M FASANO  ","","","","44514","M","1847 MATHEWS RD","","YOUNGSTOWN","OH","44514","","Natural Gas","Natural Gas","","Non-electric"
"10653210","6/12/2013","Ohio Ed","2496995","110091633864","110091633864","PAMELA M TESTA  ","","pamelamtesta@aol.com","","44514","M","15 JOHNSTON PL","","POLAND","OH","44514","","Natural Gas","Natural Gas","","Non-electric"
"10653700","6/12/2013","Ohio Ed","2535381","110093738794","110093738794","EMILY R HERMAN  ","","erh102386@gmail.com","","44511","M","3265 CRICKET DR","","YOUNGSTOWN","OH","44511","","Electric","Electric","","Electric"
"10651502","6/11/2013","CEIC","1120094","110024816164","110024816164","GORDON G BLOCK  ","","","","44143","M","4877 LINDSEY LN","","RICHMOND HEIGHTS","OH","44143","","Natural Gas","Natural Gas","","Non-electric"
"10651546","6/11/2013","Ohio Ed","1698439","110007133025","110007133025","WAYNE FINNEY  ","","","","44301","M","1871 ELDRIDGE AVE","","AKRON","OH","44301","","Natural Gas","Natural Gas","","Non-electric"
"10651704","6/11/2013","CEIC","2874445","110096531048","110096531048","MATTHEW N MALUSKY  ","","mattm1427@gmail.com","","44133","M","11697 W SPRAGUE RD","","NORTH ROYALTON","OH","44133","","Natural Gas","Electric","","Non-electric"
"10651751","6/11/2013","Ohio Ed","2056030","110016758325","110016758325","ALBERT DARBY  ","","","","44515","M","949 N FOUR MILE RUN RD","","YOUNGSTOWN","OH","44515","","Electric","Oil","","Non-electric"
"10651751","6/11/2013","Ohio Ed","2047464","110016572569","110016572569","ALBERT R DARBY  ","","","","44429","M","949 N FOUR MILE RUN","","AUSTINTOWN","OH","44515","","Electric","Electric","","Electric"
"10651813","6/11/2013","CEIC","1088424","110024013473","110024013473","JOSEPH C STONER  ","","","","44132","M","597 WILLOW DR","","EUCLID","OH","44132","","Natural Gas","Natural Gas","","Non-electric"
"10652018","6/11/2013","Ohio Ed","1962360","110014230954","110014230954","EDWARD G DIETZ  ","","dietzlands@sbcglobal.net","","45505","M","20 S FOSTER ST","","SPRINGFIELD","OH","45505","","Natural Gas","Natural Gas","","Non-electric"
"10652018","6/11/2013","Ohio Ed","1962354","110014230806","110014230806","EDWARD G DIETZ  ","","dietzlands@sbcglobal.net","","45505","M","20 S FOSTER ST","","SPRINGFIELD","OH","45505","","Natural Gas","Electric","","Non-electric"
"10652018","6/11/2013","Ohio Ed","1962351","110014230731","110014230731","EDWARD G DIETZ  ","","dietzlands@sbcglobal.net","","45505","M","20 S FOSTER ST","","SPRINGFIELD","OH","45505","","Natural Gas","Natural Gas","","Non-electric"
"10652019","6/11/2013","Ohio Ed","2202134","110048896879","110048896879","JAMES E FISHER  ","","","","44420","M","634 POWERS AVE","","GIRARD","OH","44420","","Natural Gas","Natural Gas","","Non-electric"
"10652039","6/11/2013","Ohio Ed","1738001","110008346584","110008346584","JOAN MARIE JERIN  ","","","","44203","M","1174 STRATFORD ST","","BARBERTON","OH","44203","","Natural Gas","Natural Gas","","Non-electric"
"10652046","6/11/2013","Ohio Ed","2530488","110093484761","110093484761","BETH A JONES  ","","","","44312","M","2064 QUARRY RD","","AKRON","OH","44312","","Natural Gas","Electric","","Non-electric"
"10652095","6/11/2013","Ohio Ed","2019499","110015907006","110015907006","F ROUSE  ","","","","44471","M","195 WOODBINE AVE","","STRUTHERS","OH","44471","","Natural Gas","Natural Gas","","Non-electric"
"10652146","6/11/2013","Ohio Ed","2237044","110054834988","110054834988","SUSAN Y HELLE  ","","","","44420","M","457 E WILSON","","GIRARD","OH","44420","","Natural Gas","Natural Gas","","Non-electric"
"10652146","6/11/2013","Ohio Ed","2020531","110015935056","110015935056","LOIS HELLE  ","","","","44420","M","457 E WILSON AVE","","GIRARD","OH","44420","","Natural Gas","Natural Gas","","Non-electric"
"10652150","6/11/2013","CEIC","1268190","110028094867","110028094867","RICHARD W BELL  ","","richardbelljr@oh.rr.com","","44060","M","6783 WEATHERBY DR","","MENTOR","OH","44060","","Natural Gas","Natural Gas","","Non-electric"
"10652154","6/11/2013","Ohio Ed","1820706","110010323308","110010323308","WILLIAM J MCDOWELL  ","","","","44870","M","195 MARINA POINT DR","","SANDUSKY","OH","44870","","Natural Gas","Natural Gas","","Non-electric"
"10652260","6/11/2013","Ohio Ed","2328422","110068834826","110068834826","LINDA L HOLLAND  ","","","","44460","M","512 CONTINENTAL DR APT 37","","SALEM","OH","44460","","Electric","Electric","","Non-electric"
"10652419","6/11/2013","CEIC","1304552","110030712514","110030712514","ROSE MARIE GANNON  ","","","","44109","M","3410 DAISY AVE.","","CLEVELAND","OH","44109","","Natural Gas","Natural Gas","","Non-electric"
"10652530","6/11/2013","CEIC","1361768","110046638059","110046638059","CYNTHIA J KOLMAN  ","","","","44138","M","23004 CHANDLERS LN 345","","OLMSTED FALLS","OH","44138","","Electric","Natural Gas","","Non-electric"
"10652571","6/11/2013","Ohio Ed","2090401","110018042538","110018042538","LOLA M BROWN  ","","","","44460","M","2290 LEXINGTON AVE UNIT A","","SALEM","OH","44460","","Electric","Electric","","Electric"
"10652587","6/11/2013","Ohio Ed","1840726","110010805809","110010805809","JUDY A SMITH  ","","","","43440","M","PO BOX 102","","LKSID MARBLHD","OH","43440","","Electric","Propane","","Non-electric"
"10652286","6/11/2013","Ohio Ed","2407325","110076767208","110076767208","PAMELA K VALENCHECK  ","","","","44203","M","487 E HUSTON ST","","BARBERTON","OH","44203","","Natural Gas","Natural Gas","","Non-electric"
"10649973","6/10/2013","Ohio Ed","2363568","110072747683","110072747683","GEORGE F VECCHIONE  ","","","","44512","M","8214 MARAMONT DR UNIT B","","YOUNGSTOWN","OH","44512","","Natural Gas","Natural Gas","","Non-electric"
"10650066","6/10/2013","CEIC","1381364","110051588850","110051588850","CHARLES R KUHEL  ","","","","44070","M","4732 HEATHER LN","","BROOKLYN","OH","44144","","Natural Gas","Natural Gas","","Non-electric"
"10650073","6/10/2013","Ohio Ed","2081293","110017407492","110017407492","FRANKLIN I TRIPLETT  ","","","","44609","M","2530 FAIRWAY LN","","ALLIANCE","OH","44601","","Natural Gas","Natural Gas","","Non-electric"
"10650271","6/10/2013","Ohio Ed","2045337","110016520899","110016520899","JOSEPH LAWRENCE  ","","","","44003","M","534 W OMAR ST","","STRUTHERS","OH","44471","","Natural Gas","Natural Gas","","Non-electric"
"10650359","6/10/2013","Ohio Ed","2382359","110074627305","110074627305","BETTY L REED  ","","","","44312","M","1135 HANOVER DR","","AKRON","OH","44312","","Natural Gas","Natural Gas","","Non-electric"
"10650402","6/10/2013","Ohio Ed","1858763","110011292213","110011292213","JOHN F DARRAH  ","","","","43452","M","26958 SOUTHWOOD LN","","OLMSTED FALLS","OH","44138","","Other","Electric","","Non-electric"
"10650452","6/10/2013","Toledo Ed","2646880","110019542544","110019542544","SALLIE CULVER  ","","pbj616@bex.net","","43616","M","5511 CORDUROY RD","","OREGON","OH","43616","","Electric","Electric","","Electric"
"10650524","6/10/2013","Ohio Ed","2551935","110094573042","110094573042","BENJAMIN SANTIAGO  ","","","","44405","M","68 5TH ST","","CAMPBELL","OH","44405","","Natural Gas","Natural Gas","","Non-electric"
"10650539","6/10/2013","Ohio Ed","2139875","110037933535","110037933535","STEVEN J KOWACH  ","","","","44511","M","3607 HOPKINS RD","","YOUNGSTOWN","OH","44511","","Natural Gas","Natural Gas","","Non-electric"
"10650811","6/10/2013","Ohio Ed","2166175","110042616570","110042616570","RAYMOND W FINAN  ","","","","44224","M","2131 BERGER AVE","","STOW","OH","44224","","Electric","Natural Gas","","Non-electric"
"10650849","6/10/2013","Ohio Ed","2252278","110057478841","110057478841","PAUL EIPPERT  ","","","","44515","M","225 N TURNER RD","","YOUNGSTOWN","OH","44515","","Natural Gas","Natural Gas","","Non-electric"
"10650849","6/10/2013","Ohio Ed","2028777","110016128057","110016128057","PAUL EIPPERT  ","","","","44440","M","5931 W WEBB RD","","MINERAL RIDGE","OH","44440","","Natural Gas","Natural Gas","","Non-electric"
"10651025","6/10/2013","CEIC","1073801","110023439331","110023439331","DOROTHY L SCHALK  ","","","","44123","M","883 E 237TH ST","","EUCLID","OH","44123","","Natural Gas","Natural Gas","","Non-electric"
"10651165","6/10/2013","Ohio Ed","1799975","110009835510","110009835510","CAROL A KORFANT  ","","","","44212","M","3400 HANOVER DR","","BRUNSWICK","OH","44212","","Natural Gas","Electric","","Non-electric"
"10651191","6/10/2013","Ohio Ed","2358538","110072209973","110072209973","DAVID H STROCK  ","","","","44305","M","2359 NEWTON ST","","AKRON","OH","44305","","Natural Gas","Natural Gas","","Non-electric"
"10651220","6/10/2013","Ohio Ed","1831238","110010572839","110010572839","JAMES C SNIDER  ","","","","44212","M","4480 PATRICIA DR","","BRUNSWICK","OH","44212","","Natural Gas","Natural Gas","","Non-electric"
"10651253","6/10/2013","CEIC","1328132","110037525463","110037525463","JOHN J ONEILL  ","","","","44123","M","61 E 202ND ST","","EUCLID","OH","44123","","Natural Gas","Natural Gas","","Non-electric"
"10651275","6/10/2013","Ohio Ed","2200548","110048633983","110048633983","CONSTANCE R HANSEN  ","","hansfam6@netzero.com","","44089","M","924 BRYANT DR","","VERMILION","OH","44089","","Natural Gas","Natural Gas","","Non-electric"
"10651334","6/10/2013","Ohio Ed","2178849","110044805668","110044805668","TOM MARKOVICH  ","","","","44514","M","1950 MEDFORD AVE","","YOUNGSTOWN","OH","44514","","Natural Gas","Natural Gas","","Non-electric"
"10651347","6/10/2013","Ohio Ed","2047121","110016564921","110016564921","ROBERT J MCKENNA  ","","","","44420","M","432 E KLINE ST","","GIRARD","OH","44420","","Electric","Natural Gas","","Non-electric"
"10649591","6/10/2013","Ohio Ed","2382607","110074651545","110074651545","SCOTT A SAVAGE  ","","savagescott1495@yahoo.com","","44039","M","8288 CHESAPEAKE DR","","NORTH RIDGEVILLE","OH","44039","","Electric","Natural Gas","","Non-electric"
"10649811","6/10/2013","Ohio Ed","2322776","110068092755","110068092755","RACHEL M MCILVAINE  ","","","","44647","M","204 PAGE AV NW","","MASSILLON","OH","44647","","Natural Gas","Natural Gas","","Non-electric"
"10649815","6/10/2013","Ohio Ed","2438449","110079020373","110079020373","ELIZABETH A AXE  ","","","","44505","M","1637 TANGLEWOOD DR","","YOUNGSTOWN","OH","44505","","Electric","Natural Gas","","Non-electric"
"10649837","6/10/2013","Ohio Ed","2023638","110016009851","110016009851","WILLIAM P DEVINE  ","","","","44512","M","498 EWING RD","","YOUNGSTOWN","OH","44512","","Natural Gas","Natural Gas","","Non-electric"
"10649875","6/10/2013","Ohio Ed","1997801","110015256289","110015256289","TOM OMASTA  ","","","","44502","M","1350 E FLORIDA AVE","","YOUNGSTOWN","OH","44502","","Natural Gas","Natural Gas","","Non-electric"
"10650077","6/10/2013","CEIC","1415822","110059955531","110059955531","DAN C ALDERMAN  ","","","","44142","M","15960 CYNTHIA DR","","BROOK PARK","OH","44142","","Natural Gas","Natural Gas","","Non-electric"
"10649338","6/8/2013","Ohio Ed","2464786","110089434481","110089434481","ROBERT F METZINGER  ","","metzi@zoominternet.net","","44406","M","20 NEWTON SQ DR U3","","CANFIELD","OH","44406","","Natural Gas","Natural Gas","","Non-electric"
"10649452","6/8/2013","Ohio Ed","2038337","110016353879","110016353879","THOMAS J GALANTIS  ","","symibg@zoominternet.net","","44405","M","563 MOORE DR","","CAMPBELL","OH","44405","","Natural Gas","Natural Gas","","Non-electric"
"10648233","6/7/2013","CEIC","1186824","110026299799","110026299799","EDWARD J KALETA","","","","44130","M","16480 ELDERDALE DR","","MIDDLEBURG HEIGHTS","OH","44130","","Natural Gas","Natural Gas","","Non-electric"
"10648357","6/7/2013","Ohio Ed","2105847","110031530337","110031530337","JOSEPH C KOVACH  ","","","","44429","M","17889 REDWOOD RD","","LAKE MILTON","OH","44429","","Natural Gas","Natural Gas","","Non-electric"
"10648363","6/7/2013","CEIC","1582320","110090737732","110090737732","LINDA SHEA  ","","","","44026","M","11419 HEATH RD","","CHESTERLAND","OH","44026","","Electric","Oil","","Non-electric"
"10648369","6/7/2013","Ohio Ed","2067366","110017025872","110017025872","PETE G BERECEK  ","","","","44403","M","6450 WARREN SHARON RD","","BROOKFIELD","OH","44403","","Natural Gas","Natural Gas","","Non-electric"
"10648450","6/7/2013","Ohio Ed","2030270","110016162064","110016162064","JOHN C CROW  ","","","","44515","M","29 N YORKSHIRE BLVD APT 1","","YOUNGSTOWN","OH","44515","","Natural Gas","Natural Gas","","Non-electric"
"10648555","6/7/2013","Ohio Ed","2332710","110069408232","110069408232","ADAM J FURIN  ","","","","44420","M","107 SMITHSONIAN ST","","GIRARD","OH","44420","","Natural Gas","Natural Gas","","Non-electric"
"10648568","6/7/2013","CEIC","1402436","110056802181","110056802181","EDWARD GRIMES  ","","","","44117","M","23801 GLENBROOK BLVD","","EUCLID","OH","44117","","Natural Gas","Natural Gas","","Non-electric"
"10648645","6/7/2013","Ohio Ed","2277831","110061660954","110061660954","DARLENE KOZUSKO  ","","","","44405","M","9924 UNITY RD","","POLAND","OH","44514","","Natural Gas","Natural Gas","","Non-electric"
"10648645","6/7/2013","Ohio Ed","2032581","110016217629","110016217629","DARLENE KOZUSKO  ","","","","44514","M","9924 UNITY RD","","POLAND","OH","44514","","Electric","Oil","","Non-electric"
"10648778","6/7/2013","CEIC","1561968","110080317347","110080317347","WILLIAM E BROWN  ","","","","44112","M","13321 SHAW AVE DUP","","EAST CLEVELAND","OH","44112","","Electric","Electric","","Electric"
"10648805","6/7/2013","Ohio Ed","2239198","110055197328","110055197328","NICHOLAS S RASO  ","","","","44212","M","3125 IPSWICH CT","","BRUNSWICK","OH","44212","","Natural Gas","Natural Gas","","Non-electric"
"10648958","6/7/2013","CEIC","1046913","110022375957","110022375957","LARRY E JOHNSON  ","","","","44146","M","681 TURNEY RD APT 115","","BEDFORD","OH","44146","","Natural Gas","Electric","","Non-electric"
"10648995","6/7/2013","Ohio Ed","2365414","110072959601","110072959601","SUSAN STANLEY  ","","clover3027@aol.com","","44511","M","1679 LAURIE DR","","YOUNGSTOWN","OH","44511","","Natural Gas","Natural Gas","","Non-electric"
"10649125","6/7/2013","Ohio Ed","2328761","110068878294","110068878294","PAUL E RATLIFF  ","","","","44312","M","451 STEVENSON AVE","","AKRON","OH","44312","","Natural Gas","Natural Gas","","Non-electric"
"5010049","5/28/2013","CEIC","1087302","110023979799","110023979799","Edward","Kalich","","4409444047","44095","M","30334 FORESTGROVE RD","","WILLOWICK","OH","44095","Direct mail","Non-electric","Non-electric","","Non-electric Kit"
"5010048","5/28/2013","CEIC","1477261","110071025131","110071025131","Rich","Syphrit","rsyphrit@gmail.com","4403366276","44130","M","7560 DAWN HAVEN DR","","PARMA","OH","44130","Direct mail","Non-electric","Non-electric","FALSE","Non-electric Kit"
"5010047","5/28/2013","CEIC","1358750","110045868830","110045868830","Zoran","Bogdanovic","info@cheetahcleaning.com","4408424290","44129","M","7971 LIME LN","","PARMA","OH","44129","Direct mail","Non-electric","Non-electric","","Non-electric Kit"
"5010046","5/28/2013","CEIC","1361908","110046666175","110046666175","JACLYN","BREHA","JABREHA@GMAIL.COM","4408218013","44134","M","3078 WINTHROP DR","","PARMA","OH","44134","Direct mail","Non-electric","Electric","FALSE","Non-electric Kit"
"5010045","5/28/2013","CEIC","1145828","110025405710","110025405710","Douglas","Shull","automotion7@aol.com","4407253117","44130","M","6177 PEARL RD","","PARMA HEIGHTS","OH","44130","Direct mail","Electric","Non-electric","TRUE","Non-electric Kit"
"5010044","5/28/2013","CEIC","1214346","110026915006","110026915006","Eugene","Spina","","2164339213","44130","M","14247 NEWTON RD","","MIDDLEBURG HEIGHTS","OH","44130","Direct mail","Non-electric","Non-electric","","Non-electric Kit"
"5010043","5/28/2013","Ohio Ed","1968562","110014420795","110014420795","Kit","Knisely","kit.knisely@gmail.com","6146680490","43123","M","1418 NORTHAM RD","","COLUMBUS","OH","43221","Bill Insert","Non-electric","Non-electric","FALSE","Non-electric Kit"
"5010042","5/28/2013","CEIC","1235501","110027376208","110027376208","CHERYL","PARKER","flamethrower8228@sbcglobal.net","4403527526","44077","M","108 S DOAN AVE","","PAINESVILLE","OH","44077","Friend","Non-electric","Non-electric","TRUE","Non-electric Kit"
"5010041","5/28/2013","Ohio Ed","2139603","110037860811","110037860811","Barbara","wells","gaurdian191@yahoo.com","4409916699","44470","M","2851 VERA AV NW","","SOUTHINGTON","OH","44470","Friend","Electric","Non-electric","","Non-electric Kit"
"5010040","5/28/2013","Ohio Ed","1719044","110007811828","110007811828","Kimberly","Clark","lkclark5@att.net","3307242867","44301","M","1293 GIRARD ST","","AKRON","OH","44301","Bill Insert","Non-electric","Electric","TRUE","Non-electric Kit"
"5010039","5/28/2013","Ohio Ed","2155944","110040978022","110040978022","Todd","Liebenauer","todd.liebenauer@jci.com","3305635508","44264","M","241 WHALEY RD BARN","","PENINSULA","OH","44264","Press Release","Electric","Electric","FALSE","Electric Kit"
"5010037","5/28/2013","CEIC","1007189","110021003345","110021003345","Frank","Soltysiak","fsdds@aol.com","4404774351","44125","M","5156 E 113TH ST","","GARFIELD HEIGHTS","OH","44125","Bill Insert","Non-electric","Non-electric","TRUE","Non-electric Kit"
"5010035","5/28/2013","CEIC","1141277","110025299808","110025299808","Joe","Matrona","josmatr1@cox.net","4405829262","44147","M","8076 TWIN OAKS DR","","BROADVIEW HEIGHTS","OH","44147","Bill Insert","Non-electric","Non-electric","TRUE","Non-electric Kit"
"5010034","5/28/2013","Ohio Ed","1782207","110009397586","110009397586","Raymond","Barrett","heights.ry@gmail.com","2162121323","44067","M","192 HEIGHTS AVE","","NORTHFIELD","OH","44067","Friend","Non-electric","Non-electric","TRUE","Non-electric Kit"
"5010033","5/28/2013","CEIC","1077963","110023639237","110023639237","Derrick","Kinder","derk159@sbcglobal.net","2164698322","44105","M","3674 WASHINGTON PARK BLVD","","NEWBURGH HEIGHTS","OH","44105","Press Release","Non-electric","Non-electric","TRUE","Non-electric Kit"
"5010032","5/28/2013","CEIC","1229427","110027247383","110027247383","Bridget","Schmitz","bschmitz@cose.org","4408213118","44126","M","4371 W 226TH ST","","FAIRVIEW PARK","OH","44126","Direct mail","Electric","Electric","TRUE","Electric Kit"
"5010031","5/28/2013","CEIC","1572247","110089934605","110089934605","Lewis","Warren","aztoys1@gmail.com","4408424382","44129","M","7237 LAKEVIEW DR","","PARMA","OH","44129","Direct mail","Non-electric","Non-electric","TRUE","Non-electric Kit"
"5010030","5/28/2013","CEIC","1163264","110025787778","110025787778","Barbara","Dawson","Barb6084@cox.net","4408882267","44130","M","6084 EDGEBROOK BLVD","","PARMA HEIGHTS","OH","44130","Friend","Non-electric","Non-electric","FALSE","Non-electric Kit"
"5010029","5/28/2013","CEIC","1106336","110024492164","110024492164","claudia","Wolff","eyedoc@roadrunner.com","4404614512","44124","M","6348 EASTONDALE RD","","MAYFIELD HEIGHTS","OH","44124","Bill Insert","Non-electric","Non-electric","TRUE","Non-electric Kit"
"5010028","5/28/2013","CEIC","1095281","110024196567","110024196567","Jim","Cunningham","jandf4@sbcglobal.net","4404611640","44124","M","1311 CHURCHILL RD","","LYNDHURST","OH","44124","Other","Non-electric","Non-electric","","Non-electric Kit"
"5010027","5/28/2013","CEIC","1155041","110025612109","110025612109","Josephine","Selinka","","4408424628","44134","M","3406 WELLINGTON AVE","","PARMA","OH","44134","Other","Non-electric","Non-electric","","Non-electric Kit"
"5010026","5/28/2013","Ohio Ed","1923682","110013059172","110013059172","Michelle","Kovach","chipy1976@aol.com","4405749094","44089","M","911 DOUGLAS ST","","VERMILION","OH","44089","Direct mail","Non-electric","Non-electric","TRUE","Non-electric Kit"
"5010025","5/28/2013","CEIC","1147967","110025454825","110025454825","Christopher","Jasko","jjasko@cox.net","4408886236","44130","M","7012 BERESFORD AVE","","PARMA HEIGHTS","OH","44130","Direct mail","Non-electric","Non-electric","TRUE","Non-electric Kit"
"5010024","5/28/2013","CEIC","1328467","110037610331","110037610331","Diane","Weakland","","4403549552","44077","M","544 HIDDEN HARBOR DR","","FAIRPORT HARBOR","OH","44077","Direct mail","Non-electric","Non-electric","","Non-electric Kit"
"5010023","5/28/2013","Ohio Ed","2158936","110041447779","110041447779","Michael","Nabakowski","mpnabby@gmail.com","4408649512","44089","M","13308 W LAKE RD","","VERMILION","OH","44089","Direct mail","Non-electric","Non-electric","TRUE","Non-electric Kit"
"5010022","5/28/2013","CEIC","1112691","110024640333","110024640333","David","Warner","davewarner@roadrunner.com","4405399847","44095","M","373 FAIRWAY BLVD","","WILLOWICK","OH","44095","Direct mail","Non-electric","Non-electric","FALSE","Non-electric Kit"
"5010021","5/28/2013","CEIC","1166874","110025863702","110025863702","Mary Ann","Loede","maloede@sbcglobal.net","4408457156","44134","M","2927 HERESFORD DR","","PARMA","OH","44134","Direct mail","Non-electric","Non-electric","FALSE","Non-electric Kit"
"5010020","5/28/2013","Ohio Ed","1994815","110015170811","110015170811","BADRICH","ABBAS","OHMS761@live.com","3307271137","44405","M","68 MEMORIAL CIR","","CAMPBELL","OH","44405","Friend","Non-electric","Non-electric","FALSE","Non-electric Kit"
"5010019","5/28/2013","Ohio Ed","2009548","110015604421","110015604421","Gina","Scandy","gmsrph@embarqmail.com","3303720053","44483","M","2708 N RIVER RD NE","","WARREN","OH","44483","Bill Insert","Non-electric","Non-electric","FALSE","Non-electric Kit"
"5010017","5/28/2013","CEIC","1008173","110021055626","110021055626","Kenneth","Atkinson","Katki74859@aol.com","2168832354","44105","M","3657 E 108TH ST UPPR","","CLEVELAND","OH","44105","Other","Non-electric","Non-electric","FALSE","Non-electric Kit"
"5010016","5/28/2013","CEIC","1613991","110093103320","110093103320","David","Murray","dsfrocks16@yahoo.com","4408295598","44130","M","9209 W PLEASANT VALLEY RD","","PARMA","OH","44130","Bill Insert","Non-electric","Non-electric","FALSE","Non-electric Kit"
"5010015","5/28/2013","CEIC","1050801","110022498098","110022498098","diane","badowski","jerdeemauser@gmail.com","4406526223","44125","M","12804 YORK BLVD","","GARFIELD HEIGHTS","OH","44125","Direct mail","Non-electric","Non-electric","TRUE","Non-electric Kit"
"5010014","5/28/2013","CEIC","1113039","110024647007","110024647007","Karen","Dymanski","","4409530968","44095","M","962 E 331ST ST","","EASTLAKE","OH","44095","Direct mail","Non-electric","Non-electric","","Non-electric Kit"
"5010013","5/28/2013","Ohio Ed","1822493","110010368998","110010368998","Laura","Kennedy","kennedy_8@msn.com","3304615050","44215","M","135 DEMI DUNE DR","","CHIPPEWA LAKE","OH","44215","Press Release","Non-electric","Electric","TRUE","Non-electric Kit"
"5010012","5/28/2013","CEIC","1144786","110025383305","110025383305","Stephen","Fleshman","josiesteve@att.net","4408854278","44130","M","6984 OAKWOOD RD","","PARMA HEIGHTS","OH","44130","Direct mail","Non-electric","Non-electric","TRUE","Non-electric Kit"
"5010011","5/28/2013","Ohio Ed","2387408","110075086105","110075086105","Thomas","Rex","rexfam@yahoo.com","4194397926","43452","M","4371 E LEDGE RD","","PORT CLINTON","OH","43452","Bill Insert","Non-electric","Non-electric","","Non-electric Kit"
"5010010","5/28/2013","CEIC","1004190","110020778178","110020778178","Mary","Minnillo","mjminn53@yahoo.com","2166424627","44131","M","5009 HICKORY NUT LN","","INDEPENDENCE","OH","44131","Bill Insert","Non-electric","Non-electric","TRUE","Non-electric Kit"
"5010009","5/28/2013","CEIC","1356271","110045076749","110045076749","Linda","Burt","Lzburt7@gmail.com","4403463428","44126","M","22899 SYCAMORE DR","","FAIRVIEW PARK","OH","44126","Bill Insert","Electric","Non-electric","TRUE","Non-electric Kit"
"5010008","5/28/2013","CEIC","1059054","110022779612","110022779612","Fred","DeFranco","derfy_derf@yahoo.com","2165709074","44131","M","5684 DUNDEEN CIR","","BROOKLYN HEIGHTS","OH","44131","Bill Insert","Non-electric","Non-electric","","Non-electric Kit"
"5010007","5/28/2013","Ohio Ed","2530565","110093487285","110093487285","Doug","Schnell","oldies53@hotmail.com","4196511412","44904","M","7127 CR 47","","LEXINGTON","OH","44904","Bill Insert","Electric","Electric","TRUE","Electric Kit"
"5010006","5/28/2013","CEIC","1359728","110046129679","110046129679","Eric","Bizjak","","4409463652","44094","M","2647 WESTMINSTER LN","","WILLOUGHBY","OH","44094","Direct mail","Non-electric","Non-electric","","Non-electric Kit"
"5010005","5/28/2013","Ohio Ed","2195037","110047696221","110047696221","Tara","Costa-Martin","tcostama2@yahoo.com","3309839851","44320","M","1072 PEERLESS AVE","","AKRON","OH","44320","Press Release","Electric","Non-electric","FALSE","Non-electric Kit"
"5010004","5/28/2013","CEIC","1123934","110024904929","110024904929","Linda","Bocci","bocci@att.net","4409517813","44095","M","939 E 348TH ST","","EASTLAKE","OH","44095","Direct mail","Non-electric","Non-electric","TRUE","Non-electric Kit"
"5010003","5/28/2013","Ohio Ed","2534062","110093670781","110093670781","Jill","Furlong","JillF3287@aol.com","3308331457","44666","M","13721 SOUSA ST","","NORTH LAWRENCE","OH","44666","Bill Insert","Electric","Electric","TRUE","Electric Kit"
"5010002","5/28/2013","Ohio Ed","2535817","110093760392","110093760392","Chris","Stires","c_stires@hotmail.com","3302122317","44056","M","739 ARBOR TRAIL DR","","MACEDONIA","OH","44056","Friend","Non-electric","Non-electric","TRUE","Non-electric Kit"
"5010001","5/28/2013","Ohio Ed","2535817","110093760392","110093760392","Chris","Stires","c_stires@hotmail.com","3302122317","44056","M","739 ARBOR TRAIL DR","","MACEDONIA","OH","44056","Friend","Non-electric","Non-electric","TRUE","Non-electric Kit"
"5010000","5/28/2013","CEIC","1319445","110035256095","110035256095","Teresa","George","george5237@roadrunner.com","4403614231","44041","M","3106 SPENCER DR","","GENEVA","OH","44041","Other","Electric","Non-electric","TRUE","Non-electric Kit"
"5009999","5/28/2013","Ohio Ed","1885510","110012016751","110012016751","Claudia","Marimberga","marimberga@roadrunner.com","4409498945","44054","M","766 IDLEWOOD AVE","","LORAIN","OH","44054","Direct mail","Electric","Electric","TRUE","Electric Kit"
"5009998","5/28/2013","CEIC","1113650","110024661180","110024661180","Kathleen","Butera","kathleenbutera@yahoo.com","4409461125","44094","M","38270 WESTMINSTER LN","","WILLOUGHBY","OH","44094","Direct mail","Non-electric","Non-electric","FALSE","Non-electric Kit"
"5009997","5/28/2013","Ohio Ed","2357160","110072064352","110072064352","lisa","collett","lisacollett79@yahoo.com","4402778592","44055","M","4304 CAMDEN AVE","","LORAIN","OH","44055","Direct mail","Non-electric","Non-electric","FALSE","Non-electric Kit"
"5009996","5/28/2013","Toledo Ed","2781536","110072516302","110072516302","John","Keller","johnkeller@bex.net","4193827501","43611","M","5611 EDGEWATER DR","","TOLEDO","OH","43611","Press Release","Electric","Non-electric","FALSE","Non-electric Kit"
"5009995","5/28/2013","Ohio Ed","1915498","110012834526","110012834526","henry","spenard","hspenard@neo.rr.com","4197749684","44904","M","578 DIRLAM LN","","MANSFIELD","OH","44904","Bill Insert","Non-electric","Electric","","Non-electric Kit"
"5009993","5/28/2013","Ohio Ed","2301738","110065402353","110065402353","Richard","Boss","bossr@firstenergycorp.com","3306037452","44645","M","17668 FULTON RD","","MARSHALLVILLE","OH","44645","Other","Non-electric","Non-electric","TRUE","Non-electric Kit"
"5009992","5/28/2013","CEIC","1227570","110027206298","110027206298","Rodger","Olsafsky","olsafsky.r@gmail.com","4403310961","44116","M","3665 SPENCER RD","","ROCKY RIVER","OH","44116","Other","Non-electric","Non-electric","TRUE","Non-electric Kit"
"5009991","5/28/2013","CEIC","1171288","110025956977","110025956977","robert","potoma","louie1955@att.net","2167492456","44134","M","2315 LINCOLN AVE","","PARMA","OH","44134","Bill Insert","Non-electric","Non-electric","TRUE","Non-electric Kit"
"5009990","5/28/2013","CEIC","1529003","110077381215","110077381215","stephanie","groskopf","mommy122310@gmail.com","4403769758","44095","M","34800 VINE ST A104","","EASTLAKE","OH","44095","Direct mail","Electric","Electric","TRUE","Electric Kit"
"5009989","5/28/2013","CEIC","1108408","110024540889","110024540889","Heather","McGinness","hmcginness@oh.rr.com","2165488067","44092","M","1364 CRANEING RD","","WICKLIFFE","OH","44092","Direct mail","Non-electric","Non-electric","FALSE","Non-electric Kit"
"10659924","6/18/2013","Ohio Ed","2885188","110096517203","110096517203","JENNIFER M HUDSON  ","","jhud122@yahoo.com","","44510","O","731 PARMALEE AVE","","YOUNGSTOWN","OH","44510","","Natural Gas","Natural Gas","","Non-electric"
"10657750","6/17/2013","CEIC","1221641","110027075628","110027075628","MARILYN CASSARA  ","","","","44011","O","2002 W RESERVE CIR","","AVON","OH","44011","","Natural Gas","Natural Gas","","Non-electric"
"10656710","6/14/2013","Ohio Ed","2216267","110051386719","110051386719","ROBYN R GALLITTO  ","","","","44512","O","1045 TIFFANY SOUTH","","YOUNGSTOWN","OH","44514","","Natural Gas","Natural Gas","","Non-electric"
"10652944","6/12/2013","CEIC","1572895","110089985904","110089985904","ANN M WALTERS  ","","annwcool@gmail.com","","44012","O","401 BOUNTY WAY NO. 191","","AVON LAKE","OH","44012","","Natural Gas","Natural Gas","","Non-electric"
"10650331","6/10/2013","Ohio Ed","1932403","110013317505","110013317505","RICH M MCCOY  ","","","","45503","O","3040 BRIXTON DR E","","SPRINGFIELD","OH","45503","","Natural Gas","Natural Gas","","Non-electric"
"10650012","6/10/2013","Ohio Ed","2538399","110093887450","110093887450","JAMES D WALDELE  ","","","","44452","O","1889.5 E MIDDLETOWN RD","","NORTH LIMA","OH","44452","","Natural Gas","Other","","Non-electric"
"10648555","6/7/2013","Ohio Ed","2049647","110016621614","110016621614","ELSIE J FURIN  ","","","","44420","O","145 TOWNSEND AVE","","GIRARD","OH","44420","","Natural Gas","Natural Gas","","Non-electric"
"5010038","5/28/2013","CEIC","1180609","110026167384","110026167384","Dona","Zupancic","diz1024d@gmail.com","2163628754","44142","M","13906 BELLBROOK DR","","BROOK PARK","OH","44142","Press Release","Non-electric","Non-electric","TRUE","Non-electric Kit"
"5010036","5/28/2013","Ohio Ed","2531520","110093535661","110093535661","Thomas","Staiduhar","Barb6084@cox.net","4407734342","44287","O","6084 Edgebrook Blvd.","","Parma Hts.","OH","44130","Friend","Electric","Electric","FALSE","Electric Kit"
"5009988","5/28/2013","CEIC","1627381","","110093996566","Michael","Powers","powers72812@yahoo.com","2163741761","44146","M","","","","","","Other","Non-electric","Non-electric","TRUE","Non-electric Kit"
"5010018","5/28/2013","Toledo Ed","2856660","110095673320","110095673320","Richard","Schoch","rwschoch06@hotmail.com","5673953479","43607","S","1815 ALVIN ST","","TOLEDO","OH","43607","Bill Insert","Non-electric","Non-electric","TRUE","Non-electric Kit"
"5009994","5/28/2013","Toledo Ed","2667931","110020064165","110020064165","Chris","Egli","cegli@bex.net","4198748110","43551","S","624 TIMBERCREEK CT","","PERRYSBURG","OH","43551","Friend","Non-electric","Non-electric","TRUE","Non-electric Kit"
"5009987","5/28/2013","Toledo Ed","2618080","110018760204","110018760204","Gary","Wilson","cgwilson51@yahoo.com","4195312569","43606","S","4205 BROOKSIDE RD","","TOLEDO","OH","43606","Press Release","Non-electric","Non-electric","TRUE","Non-electric Kit"
